Notebook #3
…
3.2.3 Model diagnostic

3.2.4 Model evaluation

1 Data

# load required libraries
if (!require(pacman)) install.packages("pacman")
p_load(readr, dplyr, broom, ggplot2, cowplot, sjPlot, lme4)

# load data
num2 <- read_csv("../../data/num2.csv")
num2

## # A tibble: 80 x 5
##    Length Hardness   Day ColonyID Numbercleared
##     <chr>    <chr> <int>    <int>         <int>
##  1      L        H     2        1             0
##  2      L        H     2        5             2
##  3      L        H     2        9             0
##  4      L        H     2       13            19
##  5      L        H     2       17            31
##  6      L        H     2        4             0
##  7      L        H     2        8            24
##  8      L        H     2       12             1
##  9      L        H     2       16            12
## 10      L        H     2       20             0
## # ... with 70 more rows

prop2 <- read_csv("../../data/prop2.csv")
prop2

## # A tibble: 80 x 5
##    Length Hardness   Day ColonyID Propcleared
##     <chr>    <chr> <int>    <int>       <dbl>
##  1      L        H     2        1 0.000000000
##  2      L        H     2        5 0.006666667
##  3      L        H     2        9 0.000000000
##  4      L        H     2       13 0.063333333
##  5      L        H     2       17 0.103333333
##  6      L        H     2        4 0.000000000
##  7      L        H     2        8 0.080000000
##  8      L        H     2       12 0.003333333
##  9      L        H     2       16 0.040000000
## 10      L        H     2       20 0.000000000
## # ... with 70 more rows

num4 <- read_csv("../../data/num4.csv")
num4

## # A tibble: 80 x 5
##    Length Hardness   Day ColonyID Numbercleared
##     <chr>    <chr> <int>    <int>         <int>
##  1      L        H     4        1             1
##  2      L        H     4        5             8
##  3      L        H     4        9             0
##  4      L        H     4       13           297
##  5      L        H     4       17            79
##  6      L        H     4        4             5
##  7      L        H     4        8            51
##  8      L        H     4       12            24
##  9      L        H     4       16           188
## 10      L        H     4       20             0
## # ... with 70 more rows

prop4 <- read_csv("../../data/prop4.csv")
prop4

## # A tibble: 80 x 5
##    Length Hardness   Day ColonyID Propcleared
##     <chr>    <chr> <int>    <int>       <dbl>
##  1      L        H     4        1 0.003333333
##  2      L        H     4        5 0.026666667
##  3      L        H     4        9 0.000000000
##  4      L        H     4       13 0.990000000
##  5      L        H     4       17 0.263333333
##  6      L        H     4        4 0.016666667
##  7      L        H     4        8 0.170000000
##  8      L        H     4       12 0.080000000
##  9      L        H     4       16 0.626666667
## 10      L        H     4       20 0.000000000
## # ... with 70 more rows
…
