Notebook #3
…
3.3 Model diagnostic

3.4 Model evaluation

1 Data

# load required libraries
if (!require(pacman)) install.packages("pacman")
p_load(readr, dplyr, broom, ggplot2, cowplot, sjPlot, lme4)

# load data
eliza2 <- read_csv("../../data/eliza2.csv")
eliza2

## # A tibble: 80 x 6
##    Length Hardness Treatment   Day   Rep mean_norm
##     <chr>    <chr>     <chr> <int> <int>     <dbl>
##  1      L        H       15C     2     1  0.937500
##  2      L        H       15C     2     2  0.906250
##  3      L        H       15C     2     3  0.937500
##  4      L        H       15C     2     4  0.781250
##  5      L        H       15C     2     5  0.728125
##  6      L        H       15C     2     6  0.937500
##  7      L        H       15C     2     7  0.831250
##  8      L        H       15C     2     8  0.921875
##  9      L        H       15C     2     9  0.765625
## 10      L        H       15C     2    10  0.937500
## # ... with 70 more rows

eliza4 <- read_csv("../../data/eliza4.csv")
eliza4

## # A tibble: 80 x 6
##    Length Hardness Treatment   Day   Rep mean_norm
##     <chr>    <chr>     <chr> <int> <int>     <dbl>
##  1      L        H       15C     4     1  0.934375
##  2      L        H       15C     4     2  0.862500
##  3      L        H       15C     4     3  0.937500
##  4      L        H       15C     4     4  0.009375
##  5      L        H       15C     4     5  0.490625
##  6      L        H       15C     4     6  0.915625
##  7      L        H       15C     4     7  0.700000
##  8      L        H       15C     4     8  0.831250
##  9      L        H       15C     4     9  0.190625
## 10      L        H       15C     4    10  0.937500
## # ... with 70 more rows
…
